id;categoriamanejoid;categoriaiucnid;situacao;tipoesfera;esfera;codigouc;cnuc;nome;ufs;anocriacao;atolegalcriacao;outrosatoslegais;municipios;templanomanejo;temconselhogestor;fontearea;areabioma;areaatolegalcriacao;areaamazonia;areacaatinga;areacerrado;areamataatlantica;areapampa;areapantanal;areamarinha;biomaid
1;75470;28179;América cohesive;Loan invoice;Customer reintermediate transmit;28836;compress Mali Chief;invoice;Helena payment multi-state;94965;Prático magenta;Lustroso functionalities Filmes;Coordinator ferrugem;Santa Creative Avon;Rio;programming Macio;34295;89970;9078;55770;97556;18572;82026;72357;46755;27816
2;77935;54300;visualize ADP;withdrawal;limão synergies Lustroso;87537;China Amapá;fresh-thinking deposit Direct;Consultant;58186;Planner;solution cultivate invoice;hacking Technician;back-end GB;protocol Alameda;Devolved transmitting;97926;20126;80224;52485;16105;96709;95762;92563;92759;80633
3;5559;65261;online;archive;navigate;6699;Piauí background;Dynamic communities protocol;Borders Incrível;74764;Organized roxo Alameda;visualize;Specialist compress Borracha;Assurance impactful Branding;bluetooth;Denar Global;65418;41015;3513;22609;78457;62636;52868;77727;85889;80514
4;45997;72840;Specialist Sem Bacon;Concreto Mandatory solid;Multi-tiered Investment Madeira;20680;Avenida Alagoas digital;AI Congelado;cultivate;56602;interface Macao Account;networks Loan;Marrocos archive Lindo;Chapéu;Cordoba Borders Interactions;Hryvnia;34515;89117;85549;47623;38053;24468;94107;4094;49149;79833
5;45929;93157;back-end Gostoso;CSS Bahia Architect;Incrível Iêmen;91220;Micronésia;array knowledge Switchable;Account Rua;37705;adapter Luvas SDD;District cross-platform;primary;Saúde;Branding content da;Personal;22239;52516;39551;83551;4814;43026;50091;83346;19141;43974
6;91637;56428;Agent;limão Strategist matrix;Implementation Compatible;59238;XSS digital Right-sized;Crianças invoice Mesa;Response transmitting;38061;Rua roxo input;Berkshire;Bedfordshire Borracha;multi-byte verde;Travessa;sensor invoice;93046;73609;50113;14996;68182;53470;68603;41223;58099;50284
7;1083;11488;online Account Regional;integrated adapter;HDD;73211;Sem Regional functionalities;withdrawal transition secondary;payment Consultant;59496;Metal Guarani withdrawal;content-based moratorium Atum;Camiseta Rodovia monitor;invoice Rústico Casa;Paradigm brand;human-resource;82048;94183;63114;57494;51000;29004;17592;67512;46511;78939
8;32908;94736;Uruguai hybrid;technologies mindshare;channels Chief Pernambuco;91071;bypass global;Avenida programming Congelado;Filmes calculate calculate;4423;Buckinghamshire digital;Sol;back withdrawal;primary;experiences IB productize;Bedfordshire payment;69932;2355;4158;15044;22625;77076;2626;26089;9234;75483
9;54177;30232;Namibia;Arquipélago;input;30031;neural;technologies violeta Usability;Sapatos bandwidth Internal;83682;Automotivo Account Atum;Marginal FTP Mato;Home;modular;Cabo;Brasil;90006;38566;99126;13847;9126;53846;58320;19417;83830;42107
10;37429;2045;BEAC;e-business Direct;Avon;5211;Luvas primary SCSI;Paradigm Rio;Market Gold;77344;non-volatile models 6th;bricks-and-clicks enhance;reboot Roupas;Avenida communities mobile;Granito solid end-to-end;Buckinghamshire Sudão intuitive;65800;93574;73578;36173;74255;32906;30922;60664;6237;40938
